{
  "count": 78,
  "next": "https://www.apicbase.com/api/v1/recipes/?page=6",
  "previous": "https://www.apicbase.com/api/v1/recipes/?page=4",
  "results": [
      {
          "url": "https://www.apicbase.com/api/v1/recipes/949111924700008/",
          "id": "949111924700008",
          "name": "Puttanescasaus (tomaten, olijven en ansjovis)",
          "uid": "12020121502004",
          "description": "Storia Di Pasta",
          "persons": 1,
          "cuisine": null,
          "recipe_stage": null,
          "remarks": null,
          "recipe_type": null,
          "recipe_type_other": null,
          "season": null,
          "difficulty": null,
          "recipe_class": null,
          "target_profit_margin": null,
          "vat": null,
          "current_sell_price": {
              "created": "2020-12-01 21:58:11.163715",
              "pricing": 0.0,
              "user_pk": 8762,
              "username": "hans@alberts.be"
          },
          "sell_price_history": [],
          "created_date": "2020-12-01T21:58:11.129642+01:00",
          "created_by": "hans@alberts.be",
          "modified_date": "2020-12-01T21:58:11.185314+01:00",
          "original": null,
          "clones": [],
          "public": false,
          "net_weight": "0.24",
          "net_weight_unit": "kg",
          "net_volume": null,
          "net_volume_unit": null,
          "prep_time": null,
          "prep_time_passive": null,
          "cooking_time": null,
          "cooking_time_passive": null,
          "plating_time": null,
          "portion_pieces": null,
          "custom_fields": [
              {
                  "name": "Kitchen Utensils",
                  "value": null
              },
              {
                  "name": "NutriScore",
                  "value": "B"
              },
              {
                  "name": "Picture",
                  "value": null
              }
          ],
          "main_stock_items": [],
          "shelf_life": null
      },
      {
          "url": "https://www.apicbase.com/api/v1/recipes/549111814710003/",
          "id": "549111814710003",
          "name": "Kippenbout\nDragonsaus met witte wijn\nAppelmoes\nAardappelkroketten",
          "uid": "12020121502003",
          "description": "Balanced 2",
          "persons": 1,
          "cuisine": null,
          "recipe_stage": null,
          "remarks": null,
          "recipe_type": null,
          "recipe_type_other": null,
          "season": null,
          "difficulty": null,
          "recipe_class": null,
          "target_profit_margin": null,
          "vat": null,
          "current_sell_price": {
              "created": "2020-12-01 21:58:08.041323",
              "pricing": 0.0,
              "user_pk": 8762,
              "username": "hans@alberts.be"
          },
          "sell_price_history": [],
          "created_date": "2020-12-01T21:58:08.013620+01:00",
          "created_by": "hans@alberts.be",
          "modified_date": "2020-12-01T21:58:08.095839+01:00",
          "original": null,
          "clones": [],
          "public": false,
          "net_weight": "0.78",
          "net_weight_unit": "kg",
          "net_volume": null,
          "net_volume_unit": null,
          "prep_time": null,
          "prep_time_passive": null,
          "cooking_time": null,
          "cooking_time_passive": null,
          "plating_time": null,
          "portion_pieces": null,
          "custom_fields": [
              {
                  "name": "Kitchen Utensils",
                  "value": null
              },
              {
                  "name": "NutriScore",
                  "value": "A"
              },
              {
                  "name": "Picture",
                  "value": null
              }
          ],
          "main_stock_items": [],
          "shelf_life": null
      },
      {
          "url": "https://www.apicbase.com/api/v1/recipes/449111704700002/",
          "id": "449111704700002",
          "name": "Blinde vink\nVleesjus met balsamico\nSnijbonen\nAardappelpuree",
          "uid": "12020121502002",
          "description": "Balanced 1",
          "persons": 1,
          "cuisine": null,
          "recipe_stage": null,
          "remarks": null,
          "recipe_type": null,
          "recipe_type_other": null,
          "season": null,
          "difficulty": null,
          "recipe_class": null,
          "target_profit_margin": null,
          "vat": null,
          "current_sell_price": {
              "created": "2020-12-01 21:57:59.221619",
              "pricing": 0.0,
              "user_pk": 8762,
              "username": "hans@alberts.be"
          },
          "sell_price_history": [],
          "created_date": "2020-12-01T21:57:59.196862+01:00",
          "created_by": "hans@alberts.be",
          "modified_date": "2020-12-01T21:57:59.263515+01:00",
          "original": null,
          "clones": [],
          "public": false,
          "net_weight": "0.61",
          "net_weight_unit": "kg",
          "net_volume": null,
          "net_volume_unit": null,
          "prep_time": null,
          "prep_time_passive": null,
          "cooking_time": null,
          "cooking_time_passive": null,
          "plating_time": null,
          "portion_pieces": null,
          "custom_fields": [
              {
                  "name": "Kitchen Utensils",
                  "value": null
              },
              {
                  "name": "NutriScore",
                  "value": "B"
              },
              {
                  "name": "Picture",
                  "value": null
              }
          ],
          "main_stock_items": [],
          "shelf_life": null
      },
      {
          "url": "https://www.apicbase.com/api/v1/recipes/749111693790003/",
          "id": "749111693790003",
          "name": "Penne en mozzarella salade (v)",
          "uid": "12020121502001",
          "description": "Fresh Salad & Cold dish 1",
          "persons": 1,
          "cuisine": null,
          "recipe_stage": null,
          "remarks": null,
          "recipe_type": null,
          "recipe_type_other": null,
          "season": null,
          "difficulty": null,
          "recipe_class": null,
          "target_profit_margin": null,
          "vat": null,
          "current_sell_price": {
              "created": "2020-12-01 21:57:51.211435",
              "pricing": 0.0,
              "user_pk": 8762,
              "username": "hans@alberts.be"
          },
          "sell_price_history": [],
          "created_date": "2020-12-01T21:57:51.185001+01:00",
          "created_by": "hans@alberts.be",
          "modified_date": "2020-12-01T21:57:51.225116+01:00",
          "original": null,
          "clones": [],
          "public": false,
          "net_weight": "0.36",
          "net_weight_unit": "kg",
          "net_volume": null,
          "net_volume_unit": null,
          "prep_time": null,
          "prep_time_passive": null,
          "cooking_time": null,
          "cooking_time_passive": null,
          "plating_time": null,
          "portion_pieces": null,
          "custom_fields": [
              {
                  "name": "Kitchen Utensils",
                  "value": null
              },
              {
                  "name": "NutriScore",
                  "value": "B"
              },
              {
                  "name": "Picture",
                  "value": null
              }
          ],
          "main_stock_items": [],
          "shelf_life": null
      },
      {
          "url": "https://www.apicbase.com/api/v1/recipes/249111183750003/",
          "id": "249111183750003",
          "name": "Knolseldersoep*",
          "uid": "12020121502000",
          "description": "Soup",
          "persons": 1,
          "cuisine": "",
          "recipe_stage": "",
          "remarks": "<p><br data-mce-bogus=\"1\"></p>",
          "recipe_type": null,
          "recipe_type_other": null,
          "season": "",
          "difficulty": null,
          "recipe_class": "",
          "target_profit_margin": null,
          "vat": null,
          "current_sell_price": {
              "created": "2020-12-01 21:57:48.261150",
              "pricing": 0.0,
              "user_pk": 8762,
              "username": "hans@alberts.be"
          },
          "sell_price_history": [],
          "created_date": "2020-12-01T21:57:48.233706+01:00",
          "created_by": "hans@alberts.be",
          "modified_date": "2020-12-02T14:33:17.489158+01:00",
          "original": null,
          "clones": [],
          "public": false,
          "net_weight": "0.25",
          "net_weight_unit": "kg",
          "net_volume": null,
          "net_volume_unit": "",
          "prep_time": null,
          "prep_time_passive": null,
          "cooking_time": null,
          "cooking_time_passive": null,
          "plating_time": null,
          "portion_pieces": null,
          "custom_fields": [
              {
                  "name": "Kitchen Utensils",
                  "value": null
              },
              {
                  "name": "NutriScore",
                  "value": "B"
              },
              {
                  "name": "Picture",
                  "value": "https://mymms.prod.cs.sodexo.be/Pictures/BE_CS_PROD/CATMAN/SOEPEN/WIT/CATMANSOEPENWIT_26-03-19_14H17M36S/26-03-19_10H02M57S-APIC.JPG"
              }
          ],
          "main_stock_items": [],
          "shelf_life": null
      },
      {
          "url": "https://www.apicbase.com/api/v1/recipes/749111873750000/",
          "id": "749111873750000",
          "name": "Peer in rode wijn*",
          "uid": "12020121402011",
          "description": "Sweet",
          "persons": 1,
          "cuisine": "",
          "recipe_stage": "",
          "remarks": "<p><br data-mce-bogus=\"1\"></p>",
          "recipe_type": null,
          "recipe_type_other": null,
          "season": "",
          "difficulty": null,
          "recipe_class": "",
          "target_profit_margin": null,
          "vat": null,
          "current_sell_price": {
              "created": "2020-12-01 21:57:45.389289",
              "pricing": 0.0,
              "user_pk": 8762,
              "username": "hans@alberts.be"
          },
          "sell_price_history": [],
          "created_date": "2020-12-01T21:57:45.370042+01:00",
          "created_by": "hans@alberts.be",
          "modified_date": "2020-12-02T14:35:18.562663+01:00",
          "original": null,
          "clones": [],
          "public": false,
          "net_weight": "0.25",
          "net_weight_unit": "kg",
          "net_volume": null,
          "net_volume_unit": "",
          "prep_time": null,
          "prep_time_passive": null,
          "cooking_time": null,
          "cooking_time_passive": null,
          "plating_time": null,
          "portion_pieces": null,
          "custom_fields": [
              {
                  "name": "Kitchen Utensils",
                  "value": null
              },
              {
                  "name": "NutriScore",
                  "value": "B"
              },
              {
                  "name": "Picture",
                  "value": "https://mymms.prod.cs.sodexo.be/Pictures/BE_CS_PROD/CORPORATE MENU AUTUMN/CORPORATE HERFST WEEK 13/29-11-17_09H27M23S-220631-2200101-PEER-IN-RODE-WIJN.JPG"
              }
          ],
          "main_stock_items": [],
          "shelf_life": null
      },
      {
          "url": "https://www.apicbase.com/api/v1/recipes/849111663790009/",
          "id": "849111663790009",
          "name": "Panini met tonijn en tomaat",
          "uid": "12020121402006",
          "description": "Snack",
          "persons": 1,
          "cuisine": null,
          "recipe_stage": null,
          "remarks": null,
          "recipe_type": null,
          "recipe_type_other": null,
          "season": null,
          "difficulty": null,
          "recipe_class": null,
          "target_profit_margin": null,
          "vat": null,
          "current_sell_price": {
              "created": "2020-12-01 21:57:42.498487",
              "pricing": 0.0,
              "user_pk": 8762,
              "username": "hans@alberts.be"
          },
          "sell_price_history": [],
          "created_date": "2020-12-01T21:57:42.475986+01:00",
          "created_by": "hans@alberts.be",
          "modified_date": "2020-12-01T21:57:42.516195+01:00",
          "original": null,
          "clones": [],
          "public": false,
          "net_weight": "0.29",
          "net_weight_unit": "kg",
          "net_volume": null,
          "net_volume_unit": null,
          "prep_time": null,
          "prep_time_passive": null,
          "cooking_time": null,
          "cooking_time_passive": null,
          "plating_time": null,
          "portion_pieces": null,
          "custom_fields": [
              {
                  "name": "Kitchen Utensils",
                  "value": null
              },
              {
                  "name": "NutriScore",
                  "value": "A"
              },
              {
                  "name": "Picture",
                  "value": null
              }
          ],
          "main_stock_items": [],
          "shelf_life": null
      },
      {
          "url": "https://www.apicbase.com/api/v1/recipes/349111153720002/",
          "id": "349111153720002",
          "name": "Broccoli met pestosaus (v)",
          "uid": "12020121402004",
          "description": "Storia Di Pasta",
          "persons": 1,
          "cuisine": null,
          "recipe_stage": null,
          "remarks": null,
          "recipe_type": null,
          "recipe_type_other": null,
          "season": null,
          "difficulty": null,
          "recipe_class": null,
          "target_profit_margin": null,
          "vat": null,
          "current_sell_price": {
              "created": "2020-12-01 21:57:39.660937",
              "pricing": 0.0,
              "user_pk": 8762,
              "username": "hans@alberts.be"
          },
          "sell_price_history": [],
          "created_date": "2020-12-01T21:57:39.638325+01:00",
          "created_by": "hans@alberts.be",
          "modified_date": "2020-12-01T21:57:39.675896+01:00",
          "original": null,
          "clones": [],
          "public": false,
          "net_weight": "0.23",
          "net_weight_unit": "kg",
          "net_volume": null,
          "net_volume_unit": null,
          "prep_time": null,
          "prep_time_passive": null,
          "cooking_time": null,
          "cooking_time_passive": null,
          "plating_time": null,
          "portion_pieces": null,
          "custom_fields": [
              {
                  "name": "Kitchen Utensils",
                  "value": null
              },
              {
                  "name": "NutriScore",
                  "value": "B"
              },
              {
                  "name": "Picture",
                  "value": null
              }
          ],
          "main_stock_items": [],
          "shelf_life": null
      },
      {
          "url": "https://www.apicbase.com/api/v1/recipes/749111443790000/",
          "id": "749111443790000",
          "name": "Wok van varken met citroengras\nNoedels",
          "uid": "12020121402003",
          "description": "Balanced 2",
          "persons": 1,
          "cuisine": null,
          "recipe_stage": null,
          "remarks": null,
          "recipe_type": null,
          "recipe_type_other": null,
          "season": null,
          "difficulty": null,
          "recipe_class": null,
          "target_profit_margin": null,
          "vat": null,
          "current_sell_price": {
              "created": "2020-12-01 21:57:36.741653",
              "pricing": 0.0,
              "user_pk": 8762,
              "username": "hans@alberts.be"
          },
          "sell_price_history": [],
          "created_date": "2020-12-01T21:57:36.709241+01:00",
          "created_by": "hans@alberts.be",
          "modified_date": "2020-12-01T21:57:36.775890+01:00",
          "original": null,
          "clones": [],
          "public": false,
          "net_weight": "0.61",
          "net_weight_unit": "kg",
          "net_volume": null,
          "net_volume_unit": null,
          "prep_time": null,
          "prep_time_passive": null,
          "cooking_time": null,
          "cooking_time_passive": null,
          "plating_time": null,
          "portion_pieces": null,
          "custom_fields": [
              {
                  "name": "Kitchen Utensils",
                  "value": null
              },
              {
                  "name": "NutriScore",
                  "value": "A"
              },
              {
                  "name": "Picture",
                  "value": null
              }
          ],
          "main_stock_items": [],
          "shelf_life": null
      },
      {
          "url": "https://www.apicbase.com/api/v1/recipes/249111933710009/",
          "id": "249111933710009",
          "name": "Gebakken lamsboutsnede\nLamsjus met rozemarijn\nGestoofde savooikool*\nGratin dauphinois",
          "uid": "12020121402002",
          "description": "Balanced 1",
          "persons": 1,
          "cuisine": null,
          "recipe_stage": null,
          "remarks": null,
          "recipe_type": null,
          "recipe_type_other": null,
          "season": null,
          "difficulty": null,
          "recipe_class": null,
          "target_profit_margin": null,
          "vat": null,
          "current_sell_price": {
              "created": "2020-12-01 21:57:32.130496",
              "pricing": 0.0,
              "user_pk": 8762,
              "username": "hans@alberts.be"
          },
          "sell_price_history": [],
          "created_date": "2020-12-01T21:57:32.105872+01:00",
          "created_by": "hans@alberts.be",
          "modified_date": "2020-12-01T21:57:32.176268+01:00",
          "original": null,
          "clones": [],
          "public": false,
          "net_weight": "0.62",
          "net_weight_unit": "kg",
          "net_volume": null,
          "net_volume_unit": null,
          "prep_time": null,
          "prep_time_passive": null,
          "cooking_time": null,
          "cooking_time_passive": null,
          "plating_time": null,
          "portion_pieces": null,
          "custom_fields": [
              {
                  "name": "Kitchen Utensils",
                  "value": null
              },
              {
                  "name": "NutriScore",
                  "value": "A"
              },
              {
                  "name": "Picture",
                  "value": null
              }
          ],
          "main_stock_items": [],
          "shelf_life": null
      }
  ]
}