{
  "count": 68,
  "next": "https://www.apicbase.com/api/v1/recipes/?page=7",
  "previous": "https://www.apicbase.com/api/v1/recipes/?page=5",
  "results": [
    {
      "url": "https://www.apicbase.com/api/v1/recipes/749111351730008/",
      "id": "749111351730008",
      "name": " Gevulde portobello met Breydelspek en ricotta\n*",
      "uid": "12020120802005",
      "description": "Groenten 1",
      "persons": 1,
      "cuisine": null,
      "recipe_stage": null,
      "remarks": null,
      "recipe_type": null,
      "recipe_type_other": null,
      "season": null,
      "difficulty": null,
      "recipe_class": null,
      "target_profit_margin": null,
      "vat": null,
      "current_sell_price": {
        "created": "2020-12-01 21:52:27.791811",
        "pricing": 0.0,
        "user_pk": 8762,
        "username": "hans@alberts.be"
      },
      "sell_price_history": [],
      "created_date": "2020-12-01T21:52:27.772665+01:00",
      "created_by": "hans@alberts.be",
      "modified_date": "2020-12-01T21:52:27.804320+01:00",
      "original": null,
      "clones": [],
      "public": false,
      "net_weight": "0.21",
      "net_weight_unit": "kg",
      "net_volume": null,
      "net_volume_unit": null,
      "prep_time": null,
      "prep_time_passive": null,
      "cooking_time": null,
      "cooking_time_passive": null,
      "plating_time": null,
      "portion_pieces": null,
      "custom_fields": [
        { "name": "Kitchen Utensils", "value": null },
        { "name": "NutriScore", "value": "A" },
        { "name": "Picture", "value": null }
      ],
      "main_stock_items": [],
      "shelf_life": null
    },
    {
      "url": "https://www.apicbase.com/api/v1/recipes/849111641750005/",
      "id": "849111641750005",
      "name": "Alfredosaus (v)",
      "uid": "12020120802004",
      "description": "Storia Di Pasta",
      "persons": 1,
      "cuisine": null,
      "recipe_stage": null,
      "remarks": null,
      "recipe_type": null,
      "recipe_type_other": null,
      "season": null,
      "difficulty": null,
      "recipe_class": null,
      "target_profit_margin": null,
      "vat": null,
      "current_sell_price": {
        "created": "2020-12-01 21:52:24.893693",
        "pricing": 0.0,
        "user_pk": 8762,
        "username": "hans@alberts.be"
      },
      "sell_price_history": [],
      "created_date": "2020-12-01T21:52:24.869109+01:00",
      "created_by": "hans@alberts.be",
      "modified_date": "2020-12-01T21:52:24.912714+01:00",
      "original": null,
      "clones": [],
      "public": false,
      "net_weight": "0.23",
      "net_weight_unit": "kg",
      "net_volume": null,
      "net_volume_unit": null,
      "prep_time": null,
      "prep_time_passive": null,
      "cooking_time": null,
      "cooking_time_passive": null,
      "plating_time": null,
      "portion_pieces": null,
      "custom_fields": [
        { "name": "Kitchen Utensils", "value": null },
        { "name": "NutriScore", "value": "D" },
        { "name": "Picture", "value": null }
      ],
      "main_stock_items": [],
      "shelf_life": null
    },
    {
      "url": "https://www.apicbase.com/api/v1/recipes/149111631730002/",
      "id": "149111631730002",
      "name": "Lamsgebraad met honing en tijm, balsamico rapen en gratin dauphinois",
      "uid": "12020120802003",
      "description": "Balanced 2",
      "persons": 1,
      "cuisine": null,
      "recipe_stage": null,
      "remarks": null,
      "recipe_type": null,
      "recipe_type_other": null,
      "season": null,
      "difficulty": null,
      "recipe_class": null,
      "target_profit_margin": null,
      "vat": null,
      "current_sell_price": {
        "created": "2020-12-01 21:52:21.904795",
        "pricing": 0.0,
        "user_pk": 8762,
        "username": "hans@alberts.be"
      },
      "sell_price_history": [],
      "created_date": "2020-12-01T21:52:21.875813+01:00",
      "created_by": "hans@alberts.be",
      "modified_date": "2020-12-01T21:52:21.929314+01:00",
      "original": null,
      "clones": [],
      "public": false,
      "net_weight": "0.54",
      "net_weight_unit": "kg",
      "net_volume": null,
      "net_volume_unit": null,
      "prep_time": null,
      "prep_time_passive": null,
      "cooking_time": null,
      "cooking_time_passive": null,
      "plating_time": null,
      "portion_pieces": null,
      "custom_fields": [
        { "name": "Kitchen Utensils", "value": null },
        { "name": "NutriScore", "value": "A" },
        { "name": "Picture", "value": null }
      ],
      "main_stock_items": [],
      "shelf_life": null
    },
    {
      "url": "https://www.apicbase.com/api/v1/recipes/649111621740009/",
      "id": "649111621740009",
      "name": "Balletjes in tomatensaus\nGestoofde champignons\nAardappelpuree",
      "uid": "12020120802002",
      "description": "Balanced 1",
      "persons": 1,
      "cuisine": null,
      "recipe_stage": null,
      "remarks": null,
      "recipe_type": null,
      "recipe_type_other": null,
      "season": null,
      "difficulty": null,
      "recipe_class": null,
      "target_profit_margin": null,
      "vat": null,
      "current_sell_price": {
        "created": "2020-12-01 21:52:18.950881",
        "pricing": 0.0,
        "user_pk": 8762,
        "username": "hans@alberts.be"
      },
      "sell_price_history": [],
      "created_date": "2020-12-01T21:52:18.926978+01:00",
      "created_by": "hans@alberts.be",
      "modified_date": "2020-12-01T21:52:18.981731+01:00",
      "original": null,
      "clones": [],
      "public": false,
      "net_weight": "0.73",
      "net_weight_unit": "kg",
      "net_volume": null,
      "net_volume_unit": null,
      "prep_time": null,
      "prep_time_passive": null,
      "cooking_time": null,
      "cooking_time_passive": null,
      "plating_time": null,
      "portion_pieces": null,
      "custom_fields": [
        { "name": "Kitchen Utensils", "value": null },
        { "name": "NutriScore", "value": "B" },
        { "name": "Picture", "value": null }
      ],
      "main_stock_items": [],
      "shelf_life": null
    },
    {
      "url": "https://www.apicbase.com/api/v1/recipes/149111011740008/",
      "id": "149111011740008",
      "name": "Wrap met groenten (icebergsla, knolselder), quorn en yoghurtsaus (v)",
      "uid": "12020120802001",
      "description": "Fresh Salad & Cold dish 1",
      "persons": 1,
      "cuisine": null,
      "recipe_stage": null,
      "remarks": null,
      "recipe_type": null,
      "recipe_type_other": null,
      "season": null,
      "difficulty": null,
      "recipe_class": null,
      "target_profit_margin": null,
      "vat": null,
      "current_sell_price": {
        "created": "2020-12-01 21:52:12.527848",
        "pricing": 0.0,
        "user_pk": 8762,
        "username": "hans@alberts.be"
      },
      "sell_price_history": [],
      "created_date": "2020-12-01T21:52:12.495916+01:00",
      "created_by": "hans@alberts.be",
      "modified_date": "2020-12-01T21:52:12.546411+01:00",
      "original": null,
      "clones": [],
      "public": false,
      "net_weight": "0.36",
      "net_weight_unit": "kg",
      "net_volume": null,
      "net_volume_unit": null,
      "prep_time": null,
      "prep_time_passive": null,
      "cooking_time": null,
      "cooking_time_passive": null,
      "plating_time": null,
      "portion_pieces": null,
      "custom_fields": [
        { "name": "Kitchen Utensils", "value": null },
        { "name": "NutriScore", "value": "B" },
        { "name": "Picture", "value": null }
      ],
      "main_stock_items": [],
      "shelf_life": null
    },
    {
      "url": "https://www.apicbase.com/api/v1/recipes/149111301780003/",
      "id": "149111301780003",
      "name": "Rode linzensoep",
      "uid": "12020120802000",
      "description": "Soup",
      "persons": 1,
      "cuisine": null,
      "recipe_stage": null,
      "remarks": null,
      "recipe_type": null,
      "recipe_type_other": null,
      "season": null,
      "difficulty": null,
      "recipe_class": null,
      "target_profit_margin": null,
      "vat": null,
      "current_sell_price": {
        "created": "2020-12-01 21:52:09.557694",
        "pricing": 0.0,
        "user_pk": 8762,
        "username": "hans@alberts.be"
      },
      "sell_price_history": [],
      "created_date": "2020-12-01T21:52:09.529666+01:00",
      "created_by": "hans@alberts.be",
      "modified_date": "2020-12-01T21:52:09.575699+01:00",
      "original": null,
      "clones": [],
      "public": false,
      "net_weight": "0.25",
      "net_weight_unit": "kg",
      "net_volume": null,
      "net_volume_unit": null,
      "prep_time": null,
      "prep_time_passive": null,
      "cooking_time": null,
      "cooking_time_passive": null,
      "plating_time": null,
      "portion_pieces": null,
      "custom_fields": [
        { "name": "Kitchen Utensils", "value": null },
        { "name": "NutriScore", "value": "A" },
        { "name": "Picture", "value": null }
      ],
      "main_stock_items": [],
      "shelf_life": null
    },
    {
      "url": "https://www.apicbase.com/api/v1/recipes/949111490720008/",
      "id": "949111490720008",
      "name": "Pralinémousse",
      "uid": "12020120702011",
      "description": "Sweet",
      "persons": 1,
      "cuisine": null,
      "recipe_stage": null,
      "remarks": null,
      "recipe_type": null,
      "recipe_type_other": null,
      "season": null,
      "difficulty": null,
      "recipe_class": null,
      "target_profit_margin": null,
      "vat": null,
      "current_sell_price": {
        "created": "2020-12-01 21:52:06.632268",
        "pricing": 0.0,
        "user_pk": 8762,
        "username": "hans@alberts.be"
      },
      "sell_price_history": [],
      "created_date": "2020-12-01T21:52:06.603164+01:00",
      "created_by": "hans@alberts.be",
      "modified_date": "2020-12-01T21:52:06.649415+01:00",
      "original": null,
      "clones": [],
      "public": false,
      "net_weight": "0.08",
      "net_weight_unit": "kg",
      "net_volume": null,
      "net_volume_unit": null,
      "prep_time": null,
      "prep_time_passive": null,
      "cooking_time": null,
      "cooking_time_passive": null,
      "plating_time": null,
      "portion_pieces": null,
      "custom_fields": [
        { "name": "Kitchen Utensils", "value": null },
        { "name": "NutriScore", "value": "D" },
        {
          "name": "Picture",
          "value": "https://mymms.prod.cs.sodexo.be/Pictures/BE_CS_PROD/CORPORATE MENU/WEEK 8/13-07-17_07H41M31S-PRALINEMOUSSE-MOUSSE-PRALINEE.JPG"
        }
      ],
      "main_stock_items": [],
      "shelf_life": null
    },
    {
      "url": "https://www.apicbase.com/api/v1/recipes/349111780700002/",
      "id": "349111780700002",
      "name": "Mindful vikingbrood met gerookte zalm en appel",
      "uid": "12020120702010",
      "description": "Sandwich 4",
      "persons": 1,
      "cuisine": null,
      "recipe_stage": null,
      "remarks": null,
      "recipe_type": null,
      "recipe_type_other": null,
      "season": null,
      "difficulty": null,
      "recipe_class": null,
      "target_profit_margin": null,
      "vat": null,
      "current_sell_price": {
        "created": "2020-12-01 21:52:03.764502",
        "pricing": 0.0,
        "user_pk": 8762,
        "username": "hans@alberts.be"
      },
      "sell_price_history": [],
      "created_date": "2020-12-01T21:52:03.741192+01:00",
      "created_by": "hans@alberts.be",
      "modified_date": "2020-12-01T21:52:03.779936+01:00",
      "original": null,
      "clones": [],
      "public": false,
      "net_weight": "0.22",
      "net_weight_unit": "kg",
      "net_volume": null,
      "net_volume_unit": null,
      "prep_time": null,
      "prep_time_passive": null,
      "cooking_time": null,
      "cooking_time_passive": null,
      "plating_time": null,
      "portion_pieces": null,
      "custom_fields": [
        { "name": "Kitchen Utensils", "value": null },
        { "name": "NutriScore", "value": "B" },
        {
          "name": "Picture",
          "value": "https://mymms.prod.cs.sodexo.be/Pictures/BE_CS_PROD/MINDFUL/FLATBREAD GEROOKTE ZALM APPEL.JPG"
        }
      ],
      "main_stock_items": [],
      "shelf_life": null
    },
    {
      "url": "https://www.apicbase.com/api/v1/recipes/149111570700004/",
      "id": "149111570700004",
      "name": "Sandwich hummus en preischeuten",
      "uid": "12020120702009",
      "description": "Sandwich 3",
      "persons": 1,
      "cuisine": null,
      "recipe_stage": null,
      "remarks": null,
      "recipe_type": null,
      "recipe_type_other": null,
      "season": null,
      "difficulty": null,
      "recipe_class": null,
      "target_profit_margin": null,
      "vat": null,
      "current_sell_price": {
        "created": "2020-12-01 21:52:00.766646",
        "pricing": 0.0,
        "user_pk": 8762,
        "username": "hans@alberts.be"
      },
      "sell_price_history": [],
      "created_date": "2020-12-01T21:52:00.741928+01:00",
      "created_by": "hans@alberts.be",
      "modified_date": "2020-12-01T21:52:00.780893+01:00",
      "original": null,
      "clones": [],
      "public": false,
      "net_weight": "0.30",
      "net_weight_unit": "kg",
      "net_volume": null,
      "net_volume_unit": null,
      "prep_time": null,
      "prep_time_passive": null,
      "cooking_time": null,
      "cooking_time_passive": null,
      "plating_time": null,
      "portion_pieces": null,
      "custom_fields": [
        { "name": "Kitchen Utensils", "value": null },
        { "name": "NutriScore", "value": "C" },
        { "name": "Picture", "value": null }
      ],
      "main_stock_items": [],
      "shelf_life": null
    },
    {
      "url": "https://www.apicbase.com/api/v1/recipes/849111460740006/",
      "id": "849111460740006",
      "name": "Buzzy beef",
      "uid": "12020120702008",
      "description": "Sandwich 2",
      "persons": 1,
      "cuisine": null,
      "recipe_stage": null,
      "remarks": null,
      "recipe_type": null,
      "recipe_type_other": null,
      "season": null,
      "difficulty": null,
      "recipe_class": null,
      "target_profit_margin": null,
      "vat": null,
      "current_sell_price": {
        "created": "2020-12-01 21:51:57.733084",
        "pricing": 0.0,
        "user_pk": 8762,
        "username": "hans@alberts.be"
      },
      "sell_price_history": [],
      "created_date": "2020-12-01T21:51:57.712840+01:00",
      "created_by": "hans@alberts.be",
      "modified_date": "2020-12-01T21:51:57.747166+01:00",
      "original": null,
      "clones": [],
      "public": false,
      "net_weight": "0.25",
      "net_weight_unit": "kg",
      "net_volume": null,
      "net_volume_unit": null,
      "prep_time": null,
      "prep_time_passive": null,
      "cooking_time": null,
      "cooking_time_passive": null,
      "plating_time": null,
      "portion_pieces": null,
      "custom_fields": [
        { "name": "Kitchen Utensils", "value": null },
        { "name": "NutriScore", "value": "A" },
        { "name": "Picture", "value": null }
      ],
      "main_stock_items": [],
      "shelf_life": null
    }
  ]
}
